<svg xmlns="http://www.w3.org/2000/svg" width="32" height="32" viewBox="0 0 32 32">
  <g id="Grupo_371" data-name="Grupo 371" transform="translate(-1552 -5575)">
    <g id="Grupo_19" data-name="Grupo 19" transform="translate(955 2287)">
      <g id="Elipse_3" data-name="Elipse 3" transform="translate(597 3288)" fill="#3b5998" stroke="#fff" stroke-width="1">
        <circle cx="16" cy="16" r="16" stroke="none"/>
        <circle cx="16" cy="16" r="15.5" fill="none"/>
      </g>
    </g>
    <path id="Facebook" d="M7.59,2,5.947,2C4.1,2,2.91,3.323,2.91,5.37V6.924H1.258A.269.269,0,0,0,1,7.2V9.455a.269.269,0,0,0,.258.279H2.91v5.682a.269.269,0,0,0,.258.279H5.322a.269.269,0,0,0,.258-.279V9.735H7.512a.269.269,0,0,0,.258-.279V7.2a.291.291,0,0,0-.076-.2.249.249,0,0,0-.183-.082H5.581V5.607c0-.633.14-.954.9-.954H7.59a.269.269,0,0,0,.258-.279V2.282A.27.27,0,0,0,7.59,2Z" transform="translate(1564 5582)" fill="#fff"/>
  </g>
</svg>
